{
  "css": ["./static/tailwind.css","./plugins/chalkboard/style.css"],
  "theme": "./static/chalmers.css",
  "scripts": [
    "plugins/chalkboard/plugin.js",
    "plugins/menu/menu.js",
    "plugins.js"
  ]
}
