<?xml version="1.0" encoding="UTF-8" standalone="no"?>
<!-- Created with Inkscape (http://www.inkscape.org/) -->

<svg
   width="167.46091mm"
   height="56.479122mm"
   viewBox="0 0 167.46091 56.479122"
   version="1.1"
   id="svg13871"
   inkscape:version="1.1.2 (0a00cf5339, 2022-02-04)"
   sodipodi:docname="coherent_tx.svg"
   xmlns:inkscape="http://www.inkscape.org/namespaces/inkscape"
   xmlns:sodipodi="http://sodipodi.sourceforge.net/DTD/sodipodi-0.dtd"
   xmlns="http://www.w3.org/2000/svg"
   xmlns:svg="http://www.w3.org/2000/svg">
  <sodipodi:namedview
     id="namedview13873"
     pagecolor="#ffffff"
     bordercolor="#666666"
     borderopacity="1.0"
     inkscape:pageshadow="2"
     inkscape:pageopacity="0.0"
     inkscape:pagecheckerboard="0"
     inkscape:document-units="mm"
     showgrid="false"
     fit-margin-top="0"
     fit-margin-left="0"
     fit-margin-right="0"
     fit-margin-bottom="0"
     inkscape:zoom="1.7664041"
     inkscape:cx="102.46806"
     inkscape:cy="139.26598"
     inkscape:window-width="1700"
     inkscape:window-height="899"
     inkscape:window-x="0"
     inkscape:window-y="0"
     inkscape:window-maximized="1"
     inkscape:current-layer="layer1" />
  <defs
     id="defs13868">
    <marker
       inkscape:isstock="true"
       style="overflow:visible"
       id="marker120638-6-6-2-8-1"
       refX="0"
       refY="0"
       orient="auto"
       inkscape:stockid="TriangleOutM">
      <path
         transform="scale(0.4)"
         style="fill:#000000;fill-opacity:1;fill-rule:evenodd;stroke:#000000;stroke-width:1pt;stroke-opacity:1"
         d="M 5.77,0 -2.88,5 V -5 Z"
         id="path120640-8-1-5-51-3"
         inkscape:connector-curvature="0" />
    </marker>
    <marker
       style="overflow:visible"
       id="Arrow2Mend-3-7-0-6"
       refX="0"
       refY="0"
       orient="auto"
       inkscape:stockid="Arrow2Mend">
      <path
         transform="scale(-0.6)"
         d="M 8.7185878,4.0337352 -2.2072895,0.01601326 8.7185884,-4.0017078 c -1.7454984,2.3720609 -1.7354408,5.6174519 -6e-7,8.035443 z"
         style="fill-rule:evenodd;stroke-width:0.625;stroke-linejoin:round"
         id="path50530-4-0-3-1"
         inkscape:connector-curvature="0" />
    </marker>
    <marker
       style="overflow:visible"
       id="Arrow2Mend-3-7-7-3-5"
       refX="0"
       refY="0"
       orient="auto"
       inkscape:stockid="Arrow2Mend">
      <path
         transform="scale(-0.6)"
         d="M 8.7185878,4.0337352 -2.2072895,0.01601326 8.7185884,-4.0017078 c -1.7454984,2.3720609 -1.7354408,5.6174519 -6e-7,8.035443 z"
         style="fill-rule:evenodd;stroke-width:0.625;stroke-linejoin:round"
         id="path50530-4-0-5-6-3"
         inkscape:connector-curvature="0" />
    </marker>
    <marker
       inkscape:isstock="true"
       style="overflow:visible"
       id="marker120638-6-6-2-4-3-6"
       refX="0"
       refY="0"
       orient="auto"
       inkscape:stockid="TriangleOutM">
      <path
         transform="scale(0.4)"
         style="fill:#000000;fill-opacity:1;fill-rule:evenodd;stroke:#000000;stroke-width:1pt;stroke-opacity:1"
         d="M 5.77,0 -2.88,5 V -5 Z"
         id="path120640-8-1-5-5-0-0"
         inkscape:connector-curvature="0" />
    </marker>
    <marker
       inkscape:stockid="TriangleOutM"
       orient="auto"
       refY="0"
       refX="0"
       id="marker147369-7-0-1-8-2"
       style="overflow:visible"
       inkscape:isstock="true">
      <path
         id="path147371-65-5-0-3-4"
         d="M 5.77,0 -2.88,5 V -5 Z"
         style="fill:#000000;fill-opacity:1;fill-rule:evenodd;stroke:#000000;stroke-width:1pt;stroke-opacity:1"
         transform="scale(0.4)"
         inkscape:connector-curvature="0" />
    </marker>
    <marker
       inkscape:stockid="Arrow2Mstart"
       orient="auto"
       refY="0"
       refX="0"
       id="marker752355"
       style="overflow:visible"
       inkscape:isstock="true">
      <path
         id="path752357"
         style="fill:#d40000;fill-opacity:1;fill-rule:evenodd;stroke:#d40000;stroke-width:0.625;stroke-linejoin:round;stroke-opacity:1"
         d="M 8.7185878,4.0337352 -2.2072895,0.01601326 8.7185884,-4.0017078 c -1.7454984,2.3720609 -1.7354408,5.6174519 -6e-7,8.035443 z"
         transform="scale(0.6)" />
    </marker>
    <marker
       inkscape:stockid="Arrow2Mend"
       orient="auto"
       refY="0"
       refX="0"
       id="marker366140-3-4"
       style="overflow:visible"
       inkscape:isstock="true">
      <path
         inkscape:connector-curvature="0"
         id="path124132-9-5"
         style="fill:#d40000;fill-opacity:1;fill-rule:evenodd;stroke:#d40000;stroke-width:0.625;stroke-linejoin:round;stroke-opacity:1"
         d="M 8.7185878,4.0337352 -2.2072895,0.01601326 8.7185884,-4.0017078 c -1.7454984,2.3720609 -1.7354408,5.6174519 -6e-7,8.035443 z"
         transform="scale(-0.6)" />
    </marker>
    <marker
       inkscape:stockid="Arrow2Mstart"
       orient="auto"
       refY="0"
       refX="0"
       id="marker752355-3"
       style="overflow:visible"
       inkscape:isstock="true">
      <path
         inkscape:connector-curvature="0"
         id="path752357-9"
         style="fill:#0000ff;fill-opacity:1;fill-rule:evenodd;stroke:#0000ff;stroke-width:0.625;stroke-linejoin:round;stroke-opacity:1"
         d="M 8.7185878,4.0337352 -2.2072895,0.01601326 8.7185884,-4.0017078 c -1.7454984,2.3720609 -1.7354408,5.6174519 -6e-7,8.035443 z"
         transform="scale(0.6)" />
    </marker>
    <marker
       inkscape:stockid="Arrow2Mend"
       orient="auto"
       refY="0"
       refX="0"
       id="marker366140-3-4-4"
       style="overflow:visible"
       inkscape:isstock="true">
      <path
         inkscape:connector-curvature="0"
         id="path124132-9-5-6"
         style="fill:#0000ff;fill-opacity:1;fill-rule:evenodd;stroke:#0000ff;stroke-width:0.625;stroke-linejoin:round;stroke-opacity:1"
         d="M 8.7185878,4.0337352 -2.2072895,0.01601326 8.7185884,-4.0017078 c -1.7454984,2.3720609 -1.7354408,5.6174519 -6e-7,8.035443 z"
         transform="scale(-0.6)" />
    </marker>
    <marker
       inkscape:isstock="true"
       style="overflow:visible"
       id="marker23538"
       refX="0"
       refY="0"
       orient="auto"
       inkscape:stockid="DotM">
      <path
         transform="matrix(0.4,0,0,0.4,2.96,0.4)"
         style="fill:#000000;fill-opacity:1;fill-rule:evenodd;stroke:#000000;stroke-width:1pt;stroke-opacity:1"
         d="m -2.5,-1 c 0,2.76 -2.24,5 -5,5 -2.76,0 -5,-2.24 -5,-5 0,-2.76 2.24,-5 5,-5 2.76,0 5,2.24 5,5 z"
         id="path23540"
         inkscape:connector-curvature="0" />
    </marker>
    <marker
       inkscape:isstock="true"
       style="overflow:visible"
       id="marker141916"
       refX="0"
       refY="0"
       orient="auto"
       inkscape:stockid="Arrow2Mstart"
       inkscape:collect="always">
      <path
         transform="scale(0.6)"
         d="M 8.7185878,4.0337352 -2.2072895,0.01601326 8.7185884,-4.0017078 c -1.7454984,2.3720609 -1.7354408,5.6174519 -6e-7,8.035443 z"
         style="fill:#d40000;fill-opacity:1;fill-rule:evenodd;stroke:#d40000;stroke-width:0.625;stroke-linejoin:round;stroke-opacity:1"
         id="path131835" />
    </marker>
    <marker
       inkscape:isstock="true"
       style="overflow:visible"
       id="marker139008"
       refX="0"
       refY="0"
       orient="auto"
       inkscape:stockid="Arrow2Mend">
      <path
         transform="scale(-0.6)"
         d="M 8.7185878,4.0337352 -2.2072895,0.01601326 8.7185884,-4.0017078 c -1.7454984,2.3720609 -1.7354408,5.6174519 -6e-7,8.035443 z"
         style="fill:#000000;fill-opacity:1;fill-rule:evenodd;stroke:#000000;stroke-width:0.625;stroke-linejoin:round;stroke-opacity:1"
         id="path139010" />
    </marker>
  </defs>
  <g
     inkscape:label="Layer 1"
     inkscape:groupmode="layer"
     id="layer1"
     transform="translate(50.685743,-83.472499)">
    <g
       transform="matrix(0.26458333,0,0,0.26458333,-81.969954,-49.661488)"
       style="display:inline;stroke-linecap:butt;stroke-linejoin:round"
       id="g703722">
      <path
         inkscape:connector-curvature="0"
         id="path135373-73-9-5-9-4-8"
         d="m 401.91457,524.6912 h -44.51095 v 19.87322"
         style="display:inline;fill:none;stroke:#000000;stroke-width:1.57685;stroke-linecap:butt;stroke-linejoin:miter;stroke-miterlimit:4;stroke-dasharray:none;stroke-opacity:1;marker-end:url(#marker120638-6-6-2-8-1)" />
      <g
         style="display:inline;stroke-linecap:butt;stroke-linejoin:round"
         transform="matrix(0.70177087,0,0,0.70177087,171.83012,258.00713)"
         id="g153677-7-8-4-9">
        <path
           sodipodi:nodetypes="cccccccccccccc"
           inkscape:connector-curvature="0"
           id="path13889-8-9-3-8-1-8-8-1-3-0"
           d="m 339.00508,369.32687 h -11.34664 v -16.32853 h -20.4792 v 16.32853 H 286.8928 v -16.32853 h -11.69049 v 16.32853 h -11.34665 v -16.32853 h -11.34665 v 16.32853 h -8.59594"
           style="display:inline;fill:none;stroke:#0000ff;stroke-width:0.682475px;stroke-linecap:butt;stroke-linejoin:miter;stroke-opacity:1" />
        <path
           id="path12468-6-2-9-8-2-6-7-8-9-7-9-1-6-95"
           style="display:inline;fill:#231f20;fill-opacity:1;fill-rule:nonzero;stroke:none;stroke-linecap:butt;stroke-linejoin:round"
           d="m 348.34717,372.73943 -110.54506,-0.27698 v -0.74579 l 110.54506,0.2772 z m 4.32614,-0.36181 -4.56912,2.27152 v -4.56458 l 4.55886,2.29306 z"
           inkscape:connector-curvature="0" />
        <text
           xml:space="preserve"
           style="font-style:normal;font-weight:normal;line-height:0%;font-family:sans-serif;letter-spacing:0px;word-spacing:0px;display:inline;fill:#000000;fill-opacity:1;stroke:none;stroke-linecap:butt;stroke-linejoin:round"
           x="349.23694"
           y="384.86319"
           id="text73722-6-7-3-0-4-6-5-1-6-9-8-5-0-3"><tspan
             style="font-size:11.4785px;line-height:1.25;font-family:sans-serif;stroke-linecap:butt;stroke-linejoin:round"
             sodipodi:role="line"
             id="tspan73724-2-8-4-3-1-2-2-8-5-66-7-0-5-4"
             x="349.23694"
             y="384.86319">t</tspan></text>
        <text
           id="text93627-7-6-8-1-1-9-3-3-8-0"
           y="365.25558"
           x="245.06071"
           style="font-style:normal;font-weight:normal;line-height:0%;font-family:sans-serif;letter-spacing:0px;word-spacing:0px;display:inline;fill:#000000;fill-opacity:1;stroke:none;stroke-linecap:butt;stroke-linejoin:round"
           xml:space="preserve"><tspan
             style="font-size:7.17892px;line-height:1.25;font-family:sans-serif;stroke-linecap:butt;stroke-linejoin:round"
             y="365.25558"
             x="245.06071"
             id="tspan93629-3-2-6-8-4-5-3-8-2-7"
             sodipodi:role="line">0</tspan></text>
        <text
           id="text93631-5-0-4-6-6-5-9-1-5-2"
           y="365.25906"
           x="255.77995"
           style="font-style:normal;font-weight:normal;line-height:0%;font-family:sans-serif;letter-spacing:0px;word-spacing:0px;display:inline;fill:#000000;fill-opacity:1;stroke:none;stroke-linecap:butt;stroke-linejoin:round"
           xml:space="preserve"><tspan
             style="font-size:7.17892px;line-height:1.25;font-family:sans-serif;stroke-linecap:butt;stroke-linejoin:round"
             y="365.25906"
             x="255.77995"
             id="tspan93633-7-4-1-3-8-3-1-5-3-9"
             sodipodi:role="line">1</tspan></text>
        <text
           id="text93627-1-8-5-8-1-5-4-7-2-1-0"
           y="365.25558"
           x="267.22711"
           style="font-style:normal;font-weight:normal;line-height:0%;font-family:sans-serif;letter-spacing:0px;word-spacing:0px;display:inline;fill:#000000;fill-opacity:1;stroke:none;stroke-linecap:butt;stroke-linejoin:round"
           xml:space="preserve"><tspan
             style="font-size:7.17892px;line-height:1.25;font-family:sans-serif;stroke-linecap:butt;stroke-linejoin:round"
             y="365.25558"
             x="267.22711"
             id="tspan93629-9-6-1-9-9-3-2-7-9-0-8"
             sodipodi:role="line">0</tspan></text>
        <text
           id="text93627-0-6-7-7-5-8-8-3-6-7-2"
           y="365.25558"
           x="289.9917"
           style="font-style:normal;font-weight:normal;line-height:0%;font-family:sans-serif;letter-spacing:0px;word-spacing:0px;display:inline;fill:#000000;fill-opacity:1;stroke:none;stroke-linecap:butt;stroke-linejoin:round"
           xml:space="preserve"><tspan
             style="font-size:7.17892px;line-height:1.25;font-family:sans-serif;stroke-linecap:butt;stroke-linejoin:round"
             y="365.25558"
             x="289.9917"
             id="tspan93629-8-0-9-7-8-4-5-8-5-9-1"
             sodipodi:role="line">0</tspan></text>
        <text
           id="text93627-08-2-7-6-0-4-8-9-4-8-3"
           y="365.25558"
           x="298.98108"
           style="font-style:normal;font-weight:normal;line-height:0%;font-family:sans-serif;letter-spacing:0px;word-spacing:0px;display:inline;fill:#000000;fill-opacity:1;stroke:none;stroke-linecap:butt;stroke-linejoin:round"
           xml:space="preserve"><tspan
             style="font-size:7.17892px;line-height:1.25;font-family:sans-serif;stroke-linecap:butt;stroke-linejoin:round"
             y="365.25558"
             x="298.98108"
             id="tspan93629-84-9-0-5-2-6-8-5-7-2-45"
             sodipodi:role="line">0</tspan></text>
        <text
           id="text93627-4-8-0-4-1-4-8-6-7-2-7"
           y="365.25558"
           x="331.33325"
           style="font-style:normal;font-weight:normal;line-height:0%;font-family:sans-serif;letter-spacing:0px;word-spacing:0px;display:inline;fill:#000000;fill-opacity:1;stroke:none;stroke-linecap:butt;stroke-linejoin:round"
           xml:space="preserve"><tspan
             style="font-size:7.17892px;line-height:1.25;font-family:sans-serif;stroke-linecap:butt;stroke-linejoin:round"
             y="365.25558"
             x="331.33325"
             id="tspan93629-7-4-8-9-4-5-3-0-3-2-7"
             sodipodi:role="line">0</tspan></text>
        <text
           id="text93631-9-3-3-2-4-6-4-1-5-3-4"
           y="365.25906"
           x="278.24542"
           style="font-style:normal;font-weight:normal;line-height:0%;font-family:sans-serif;letter-spacing:0px;word-spacing:0px;display:inline;fill:#000000;fill-opacity:1;stroke:none;stroke-linecap:butt;stroke-linejoin:round"
           xml:space="preserve"><tspan
             style="font-size:7.17892px;line-height:1.25;font-family:sans-serif;stroke-linecap:butt;stroke-linejoin:round"
             y="365.25906"
             x="278.24542"
             id="tspan93633-8-0-1-7-1-4-5-4-9-8-3"
             sodipodi:role="line">1</tspan></text>
        <text
           id="text93631-8-2-4-8-1-8-8-9-2-1-17"
           y="365.25906"
           x="310.29852"
           style="font-style:normal;font-weight:normal;line-height:0%;font-family:sans-serif;letter-spacing:0px;word-spacing:0px;display:inline;fill:#000000;fill-opacity:1;stroke:none;stroke-linecap:butt;stroke-linejoin:round"
           xml:space="preserve"><tspan
             style="font-size:7.17892px;line-height:1.25;font-family:sans-serif;stroke-linecap:butt;stroke-linejoin:round"
             y="365.25906"
             x="310.29852"
             id="tspan93633-1-7-5-7-1-6-3-7-8-3-1"
             sodipodi:role="line">1</tspan></text>
        <text
           id="text93631-1-4-2-0-3-4-1-1-7-7-3"
           y="365.25906"
           x="319.88605"
           style="font-style:normal;font-weight:normal;line-height:0%;font-family:sans-serif;letter-spacing:0px;word-spacing:0px;display:inline;fill:#000000;fill-opacity:1;stroke:none;stroke-linecap:butt;stroke-linejoin:round"
           xml:space="preserve"><tspan
             style="font-size:7.17892px;line-height:1.25;font-family:sans-serif;stroke-linecap:butt;stroke-linejoin:round"
             y="365.25906"
             x="319.88605"
             id="tspan93633-2-2-7-9-5-3-3-0-8-3-1"
             sodipodi:role="line">1</tspan></text>
      </g>
    </g>
    <g
       style="display:inline;stroke-linecap:butt;stroke-linejoin:round"
       transform="matrix(0.29973693,0,0,0.29973693,-29.183452,26.257381)"
       id="g288109-5-8">
      <path
         style="display:inline;fill:none;stroke:#000000;stroke-width:2.09541;stroke-linecap:butt;stroke-linejoin:miter;stroke-miterlimit:4;stroke-dasharray:none;stroke-opacity:1;marker-end:url(#Arrow2Mend-3-7-0-6)"
         d="M 400.62277,366.15092 V 195.8458"
         id="path76575-1-9-2"
         inkscape:connector-curvature="0" />
      <path
         style="display:inline;fill:none;stroke:#000000;stroke-width:2.09541;stroke-linecap:butt;stroke-linejoin:miter;stroke-miterlimit:4;stroke-dasharray:none;stroke-opacity:1;marker-end:url(#Arrow2Mend-3-7-7-3-5)"
         d="M 313.87549,279.44926 H 484.18061"
         id="path76575-1-1-2-6"
         inkscape:connector-curvature="0" />
    </g>
    <g
       style="display:inline;stroke-linecap:butt;stroke-linejoin:round"
       transform="matrix(0.26458333,0,0,0.26458333,-81.969954,-45.428155)"
       id="g703696">
      <path
         inkscape:connector-curvature="0"
         id="path135373-73-9-5-9-6-0-3"
         d="M 379.65909,674.12829 H 357.40362 V 654.25507"
         style="display:inline;fill:none;stroke:#000000;stroke-width:1.57688;stroke-linecap:butt;stroke-linejoin:miter;stroke-miterlimit:4;stroke-dasharray:none;stroke-opacity:1;marker-end:url(#marker120638-6-6-2-4-3-6)"
         sodipodi:nodetypes="ccc" />
      <g
         style="display:inline;stroke-linecap:butt;stroke-linejoin:round"
         transform="matrix(0.70177087,0,0,0.70177087,167.33012,430.50714)"
         id="g153677-7-8-4-5-2">
        <path
           sodipodi:nodetypes="cccccccccccc"
           inkscape:connector-curvature="0"
           id="path13889-8-9-3-8-1-8-8-1-3-6-2"
           d="m 339.00508,369.32687 h -11.34664 v -16.32853 h -20.4792 v 16.32853 H 286.8928 v -16.32853 h -11.69049 -11.34665 -11.34665 v 16.32853 h -8.59594"
           style="display:inline;fill:none;stroke:#ff0000;stroke-width:0.682475px;stroke-linecap:butt;stroke-linejoin:miter;stroke-opacity:1" />
        <path
           id="path12468-6-2-9-8-2-6-7-8-9-7-9-1-6-9-5"
           style="display:inline;fill:#231f20;fill-opacity:1;fill-rule:nonzero;stroke:none;stroke-linecap:butt;stroke-linejoin:round"
           d="m 348.34717,372.73943 -110.54506,-0.27698 v -0.74579 l 110.54506,0.2772 z m 4.32614,-0.36181 -4.56912,2.27152 v -4.56458 l 4.55886,2.29306 z"
           inkscape:connector-curvature="0" />
        <text
           xml:space="preserve"
           style="font-style:normal;font-weight:normal;line-height:0%;font-family:sans-serif;letter-spacing:0px;word-spacing:0px;display:inline;fill:#000000;fill-opacity:1;stroke:none;stroke-linecap:butt;stroke-linejoin:round"
           x="349.23694"
           y="384.86319"
           id="text73722-6-7-3-0-4-6-5-1-6-9-8-5-0-0-6"><tspan
             style="font-size:11.4785px;line-height:1.25;font-family:sans-serif;stroke-linecap:butt;stroke-linejoin:round"
             sodipodi:role="line"
             id="tspan73724-2-8-4-3-1-2-2-8-5-66-7-0-5-8-4"
             x="349.23694"
             y="384.86319">t</tspan></text>
        <text
           id="text93627-7-6-8-1-1-9-3-3-8-1-5"
           y="365.25558"
           x="245.06071"
           style="font-style:normal;font-weight:normal;line-height:0%;font-family:sans-serif;letter-spacing:0px;word-spacing:0px;display:inline;fill:#000000;fill-opacity:1;stroke:none;stroke-linecap:butt;stroke-linejoin:round"
           xml:space="preserve"><tspan
             style="font-size:7.17892px;line-height:1.25;font-family:sans-serif;stroke-linecap:butt;stroke-linejoin:round"
             y="365.25558"
             x="245.06071"
             id="tspan93629-3-2-6-8-4-5-3-8-2-3-7"
             sodipodi:role="line">0</tspan></text>
        <text
           id="text93631-5-0-4-6-6-5-9-1-5-9-8"
           y="365.25906"
           x="255.77995"
           style="font-style:normal;font-weight:normal;line-height:0%;font-family:sans-serif;letter-spacing:0px;word-spacing:0px;display:inline;fill:#000000;fill-opacity:1;stroke:none;stroke-linecap:butt;stroke-linejoin:round"
           xml:space="preserve"><tspan
             style="font-size:7.17892px;line-height:1.25;font-family:sans-serif;stroke-linecap:butt;stroke-linejoin:round"
             y="365.25906"
             x="255.77995"
             id="tspan93633-7-4-1-3-8-3-1-5-3-4-8"
             sodipodi:role="line">1</tspan></text>
        <text
           id="text93627-0-6-7-7-5-8-8-3-6-7-7-2"
           y="365.25558"
           x="289.9917"
           style="font-style:normal;font-weight:normal;line-height:0%;font-family:sans-serif;letter-spacing:0px;word-spacing:0px;display:inline;fill:#000000;fill-opacity:1;stroke:none;stroke-linecap:butt;stroke-linejoin:round"
           xml:space="preserve"><tspan
             style="font-size:7.17892px;line-height:1.25;font-family:sans-serif;stroke-linecap:butt;stroke-linejoin:round"
             y="365.25558"
             x="289.9917"
             id="tspan93629-8-0-9-7-8-4-5-8-5-9-6-4"
             sodipodi:role="line">0</tspan></text>
        <text
           id="text93627-08-2-7-6-0-4-8-9-4-8-8-6"
           y="365.25558"
           x="298.98108"
           style="font-style:normal;font-weight:normal;line-height:0%;font-family:sans-serif;letter-spacing:0px;word-spacing:0px;display:inline;fill:#000000;fill-opacity:1;stroke:none;stroke-linecap:butt;stroke-linejoin:round"
           xml:space="preserve"><tspan
             style="font-size:7.17892px;line-height:1.25;font-family:sans-serif;stroke-linecap:butt;stroke-linejoin:round"
             y="365.25558"
             x="298.98108"
             id="tspan93629-84-9-0-5-2-6-8-5-7-2-4-0"
             sodipodi:role="line">0</tspan></text>
        <text
           id="text93627-4-8-0-4-1-4-8-6-7-2-9-1"
           y="365.25558"
           x="331.33325"
           style="font-style:normal;font-weight:normal;line-height:0%;font-family:sans-serif;letter-spacing:0px;word-spacing:0px;display:inline;fill:#000000;fill-opacity:1;stroke:none;stroke-linecap:butt;stroke-linejoin:round"
           xml:space="preserve"><tspan
             style="font-size:7.17892px;line-height:1.25;font-family:sans-serif;stroke-linecap:butt;stroke-linejoin:round"
             y="365.25558"
             x="331.33325"
             id="tspan93629-7-4-8-9-4-5-3-0-3-2-2-2"
             sodipodi:role="line">0</tspan></text>
        <text
           id="text93631-9-3-3-2-4-6-4-1-5-3-9-5"
           y="365.25906"
           x="278.24542"
           style="font-style:normal;font-weight:normal;line-height:0%;font-family:sans-serif;letter-spacing:0px;word-spacing:0px;display:inline;fill:#000000;fill-opacity:1;stroke:none;stroke-linecap:butt;stroke-linejoin:round"
           xml:space="preserve"><tspan
             style="font-size:7.17892px;line-height:1.25;font-family:sans-serif;stroke-linecap:butt;stroke-linejoin:round"
             y="365.25906"
             x="278.24542"
             id="tspan93633-8-0-1-7-1-4-5-4-9-8-9-5"
             sodipodi:role="line">1</tspan></text>
        <text
           id="text93631-8-2-4-8-1-8-8-9-2-1-1-9"
           y="365.25906"
           x="310.29852"
           style="font-style:normal;font-weight:normal;line-height:0%;font-family:sans-serif;letter-spacing:0px;word-spacing:0px;display:inline;fill:#000000;fill-opacity:1;stroke:none;stroke-linecap:butt;stroke-linejoin:round"
           xml:space="preserve"><tspan
             style="font-size:7.17892px;line-height:1.25;font-family:sans-serif;stroke-linecap:butt;stroke-linejoin:round"
             y="365.25906"
             x="310.29852"
             id="tspan93633-1-7-5-7-1-6-3-7-8-3-7-8"
             sodipodi:role="line">1</tspan></text>
        <text
           id="text93631-1-4-2-0-3-4-1-1-7-7-6-8"
           y="365.25906"
           x="319.88605"
           style="font-style:normal;font-weight:normal;line-height:0%;font-family:sans-serif;letter-spacing:0px;word-spacing:0px;display:inline;fill:#000000;fill-opacity:1;stroke:none;stroke-linecap:butt;stroke-linejoin:round"
           xml:space="preserve"><tspan
             style="font-size:7.17892px;line-height:1.25;font-family:sans-serif;stroke-linecap:butt;stroke-linejoin:round"
             y="365.25906"
             x="319.88605"
             id="tspan93633-2-2-7-9-5-3-3-0-8-3-8-1"
             sodipodi:role="line">1</tspan></text>
        <text
           id="text93631-9-3-3-2-4-6-4-1-5-3-9-8-3"
           y="365.25906"
           x="266.8457"
           style="font-style:normal;font-weight:normal;line-height:0%;font-family:sans-serif;letter-spacing:0px;word-spacing:0px;display:inline;fill:#000000;fill-opacity:1;stroke:none;stroke-linecap:butt;stroke-linejoin:round"
           xml:space="preserve"><tspan
             style="font-size:7.17892px;line-height:1.25;font-family:sans-serif;stroke-linecap:butt;stroke-linejoin:round"
             y="365.25906"
             x="266.8457"
             id="tspan93633-8-0-1-7-1-4-5-4-9-8-9-1-9"
             sodipodi:role="line">1</tspan></text>
      </g>
    </g>
    <g
       style="display:inline;stroke-linecap:butt;stroke-linejoin:round"
       id="g706411"
       transform="matrix(0.26458333,0,0,0.26458333,-81.969954,-48.073988)">
      <g
         style="display:inline;stroke-linecap:butt;stroke-linejoin:round"
         transform="matrix(0.70177087,0,0,0.70177087,-163.3363,246.3652)"
         id="g153946-6-0-2">
        <g
           style="stroke-linecap:butt;stroke-linejoin:round"
           id="g153950-8-6-0">
          <path
             sodipodi:nodetypes="cccccc"
             d="m 835.16023,504.24917 -36.47652,-57.27565 h -22.74037 m -57.83017,0 h -26.32363 l -36.47653,57.27565"
             style="display:inline;opacity:1;fill:none;stroke:#2e3192;stroke-width:4.49391;stroke-linecap:butt;stroke-linejoin:miter;stroke-miterlimit:22.9256;stroke-dasharray:none;stroke-opacity:1"
             id="path11683-1-5-5-1-1-6-3-0-7-6-5-4-2-2-9-6"
             inkscape:connector-curvature="0" />
          <path
             sodipodi:nodetypes="cccccccc"
             d="m 896.79958,501.8294 h -63.05356 l -35.06231,59.75052 h -23.63097 m -58.36453,0 h -24.89867 l -34.70876,-59.43986 -72.37093,-0.10355"
             style="display:inline;opacity:1;fill:none;stroke:#2e3192;stroke-width:4.49391;stroke-linecap:butt;stroke-linejoin:miter;stroke-miterlimit:22.9256;stroke-dasharray:none;stroke-opacity:1"
             id="path11683-1-5-5-1-1-6-3-0-7-6-5-4-2-4-9-8-6"
             inkscape:connector-curvature="0" />
        </g>
      </g>
      <path
         style="display:inline;fill:none;fill-rule:evenodd;stroke:#000000;stroke-width:2.36527;stroke-linecap:butt;stroke-linejoin:miter;stroke-miterlimit:4;stroke-dasharray:none;stroke-opacity:1;marker-end:url(#marker147369-7-0-1-8-2)"
         d="m 252.70401,590.99096 h 22.86427"
         id="path147361-4-5-2-7-6"
         inkscape:connector-curvature="0" />
      <g
         id="g706355"
         transform="matrix(0.34460707,0,0,0.34460707,336.39689,362.00899)"
         style="stroke-linecap:butt;stroke-linejoin:round">
        <g
           id="g153946-6-0-2-9"
           transform="matrix(0.70177087,0,0,0.70177087,-451.3363,222.3652)"
           style="display:inline;stroke-linecap:butt;stroke-linejoin:round">
          <g
             id="g153950-8-6-0-8"
             style="stroke-linecap:butt;stroke-linejoin:round">
            <path
               inkscape:connector-curvature="0"
               id="path11683-1-5-5-1-1-6-3-0-7-6-5-4-2-2-9-6-4"
               style="display:inline;opacity:1;fill:none;stroke:#2e3192;stroke-width:13.0407;stroke-linecap:butt;stroke-linejoin:miter;stroke-miterlimit:22.9256;stroke-dasharray:none;stroke-opacity:1"
               d="m 835.16023,504.24917 -36.47652,-57.27565 h -70.41765 -36.47652 l -36.47653,57.27565"
               sodipodi:nodetypes="ccccc" />
            <path
               inkscape:connector-curvature="0"
               id="path11683-1-5-5-1-1-6-3-0-7-6-5-4-2-4-9-8-6-3"
               style="display:inline;opacity:1;fill:none;stroke:#2e3192;stroke-width:13.0407;stroke-linecap:butt;stroke-linejoin:miter;stroke-miterlimit:22.9256;stroke-dasharray:none;stroke-opacity:1"
               d="m 896.79958,501.8294 h -63.05356 l -35.06231,59.75052 h -70.41765 -36.47652 l -34.70876,-59.43986 -72.37093,-0.10355"
               sodipodi:nodetypes="ccccccc" />
          </g>
        </g>
        <rect
           style="color:#000000;clip-rule:nonzero;display:inline;overflow:visible;visibility:visible;opacity:1;isolation:auto;mix-blend-mode:normal;color-interpolation:sRGB;color-interpolation-filters:linearRGB;solid-color:#000000;solid-opacity:1;fill:#ffcc00;fill-opacity:1;fill-rule:nonzero;stroke:none;stroke-width:2;stroke-linecap:round;stroke-linejoin:miter;stroke-miterlimit:4;stroke-dasharray:none;stroke-dashoffset:0;stroke-opacity:1;marker:none;color-rendering:auto;image-rendering:auto;shape-rendering:auto;text-rendering:auto;enable-background:accumulate"
           id="rect151024-4-1-6-2-3"
           width="64.665909"
           height="19.223143"
           x="40.006615"
           y="526.14685" />
        <rect
           style="color:#000000;clip-rule:nonzero;display:inline;overflow:visible;visibility:visible;opacity:1;isolation:auto;mix-blend-mode:normal;color-interpolation:sRGB;color-interpolation-filters:linearRGB;solid-color:#000000;solid-opacity:1;fill:#ffcc00;fill-opacity:1;fill-rule:nonzero;stroke:none;stroke-width:2;stroke-linecap:round;stroke-linejoin:miter;stroke-miterlimit:4;stroke-dasharray:none;stroke-dashoffset:0;stroke-opacity:1;marker:none;color-rendering:auto;image-rendering:auto;shape-rendering:auto;text-rendering:auto;enable-background:accumulate"
           id="rect151024-3-4-2-2-8"
           width="64.920067"
           height="19.298698"
           x="38.25222"
           y="606.49957" />
      </g>
      <g
         id="g706355-0"
         transform="matrix(0.34460707,0,0,0.34460707,335.39689,442.38399)"
         style="display:inline;stroke-linecap:butt;stroke-linejoin:round">
        <g
           id="g153946-6-0-2-9-9"
           transform="matrix(0.70177087,0,0,0.70177087,-451.3363,222.3652)"
           style="display:inline;stroke-linecap:butt;stroke-linejoin:round">
          <g
             id="g153950-8-6-0-8-1"
             style="stroke-linecap:butt;stroke-linejoin:round">
            <path
               inkscape:connector-curvature="0"
               id="path11683-1-5-5-1-1-6-3-0-7-6-5-4-2-2-9-6-4-0"
               style="display:inline;opacity:1;fill:none;stroke:#2e3192;stroke-width:13.0407;stroke-linecap:butt;stroke-linejoin:miter;stroke-miterlimit:22.9256;stroke-dasharray:none;stroke-opacity:1"
               d="m 835.16023,504.24917 -36.47652,-57.27565 h -70.41765 -36.47652 l -36.47653,57.27565"
               sodipodi:nodetypes="ccccc" />
            <path
               inkscape:connector-curvature="0"
               id="path11683-1-5-5-1-1-6-3-0-7-6-5-4-2-4-9-8-6-3-9"
               style="display:inline;opacity:1;fill:none;stroke:#2e3192;stroke-width:13.0407;stroke-linecap:butt;stroke-linejoin:miter;stroke-miterlimit:22.9256;stroke-dasharray:none;stroke-opacity:1"
               d="m 896.79958,501.8294 h -63.05356 l -35.06231,59.75052 h -70.41765 -36.47652 l -34.70876,-59.43986 -72.37093,-0.10355"
               sodipodi:nodetypes="ccccccc" />
          </g>
        </g>
        <rect
           style="color:#000000;clip-rule:nonzero;display:inline;overflow:visible;visibility:visible;opacity:1;isolation:auto;mix-blend-mode:normal;color-interpolation:sRGB;color-interpolation-filters:linearRGB;solid-color:#000000;solid-opacity:1;fill:#ffcc00;fill-opacity:1;fill-rule:nonzero;stroke:none;stroke-width:2;stroke-linecap:round;stroke-linejoin:miter;stroke-miterlimit:4;stroke-dasharray:none;stroke-dashoffset:0;stroke-opacity:1;marker:none;color-rendering:auto;image-rendering:auto;shape-rendering:auto;text-rendering:auto;enable-background:accumulate"
           id="rect151024-4-1-6-2-3-2"
           width="64.665909"
           height="19.223143"
           x="40.006615"
           y="526.14685" />
        <rect
           style="color:#000000;clip-rule:nonzero;display:inline;overflow:visible;visibility:visible;opacity:1;isolation:auto;mix-blend-mode:normal;color-interpolation:sRGB;color-interpolation-filters:linearRGB;solid-color:#000000;solid-opacity:1;fill:#ffcc00;fill-opacity:1;fill-rule:nonzero;stroke:none;stroke-width:2;stroke-linecap:round;stroke-linejoin:miter;stroke-miterlimit:4;stroke-dasharray:none;stroke-dashoffset:0;stroke-opacity:1;marker:none;color-rendering:auto;image-rendering:auto;shape-rendering:auto;text-rendering:auto;enable-background:accumulate"
           id="rect151024-3-4-2-2-8-3"
           width="64.920067"
           height="19.298698"
           x="38.25222"
           y="606.49957" />
      </g>
    </g>
    <rect
       y="113.68587"
       x="23.302439"
       height="4.8643055"
       width="7.413516"
       id="rect706443"
       style="color:#000000;clip-rule:nonzero;display:inline;overflow:visible;visibility:visible;isolation:auto;mix-blend-mode:normal;color-interpolation:sRGB;color-interpolation-filters:linearRGB;solid-color:#000000;solid-opacity:1;fill:#ffffff;fill-opacity:1;fill-rule:nonzero;stroke:#000000;stroke-width:0.396875;stroke-linecap:butt;stroke-linejoin:miter;stroke-miterlimit:4;stroke-dasharray:none;stroke-dashoffset:0;stroke-opacity:1;marker:none;color-rendering:auto;image-rendering:auto;shape-rendering:auto;text-rendering:auto;enable-background:accumulate" />
    <text
       id="text706445"
       y="117.50476"
       x="23.903839"
       style="font-style:normal;font-variant:normal;font-weight:normal;font-stretch:normal;font-size:3.175px;line-height:0%;font-family:Arial;-inkscape-font-specification:'Arial, Normal';text-align:start;letter-spacing:0px;word-spacing:0px;writing-mode:lr-tb;text-anchor:start;display:inline;fill:#000000;fill-opacity:1;stroke:none;stroke-width:0.264583px;stroke-linecap:butt;stroke-linejoin:miter;stroke-opacity:1"
       xml:space="preserve"><tspan
         y="117.50476"
         x="23.903839"
         style="font-size:4.26477px;line-height:1.25;stroke-width:0.264583px;stroke-linecap:butt;stroke-linejoin:round"
         id="tspan706447"
         sodipodi:role="line">90°</tspan></text>
    <path
       sodipodi:nodetypes="ccc"
       inkscape:transform-center-y="67.777785"
       inkscape:transform-center-x="-0.405464"
       inkscape:connector-curvature="0"
       id="path78318-7-7-7-3"
       d="m 90.846574,92.010868 -0.019,32.110972 -0.0024,4.00142"
       style="display:inline;fill:#d40000;stroke:#d40000;stroke-width:0.529167;stroke-linecap:butt;stroke-linejoin:miter;stroke-miterlimit:4;stroke-dasharray:none;stroke-opacity:1;marker-start:url(#marker752355);marker-end:url(#marker366140-3-4)" />
    <path
       sodipodi:nodetypes="ccc"
       inkscape:transform-center-y="0.405465"
       inkscape:transform-center-x="67.777786"
       inkscape:connector-curvature="0"
       id="path78318-7-7-7-3-1"
       d="m 108.89209,110.07775 -32.110974,-0.019 -4.001424,-0.002"
       style="display:inline;fill:#0000ff;stroke:#0000ff;stroke-width:0.529167;stroke-linecap:butt;stroke-linejoin:miter;stroke-miterlimit:4;stroke-dasharray:none;stroke-opacity:1;marker-start:url(#marker752355-3);marker-end:url(#marker366140-3-4-4)" />
    <text
       id="text808486"
       y="87.260384"
       x="33.123795"
       style="font-style:normal;font-variant:normal;font-weight:normal;font-stretch:normal;font-size:3.175px;line-height:0%;font-family:Arial;-inkscape-font-specification:'Arial, Normal';text-align:start;letter-spacing:0px;word-spacing:0px;writing-mode:lr-tb;text-anchor:start;display:inline;fill:#0000ff;fill-opacity:1;stroke:none;stroke-width:0.264583px;stroke-linecap:butt;stroke-linejoin:miter;stroke-opacity:1"
       xml:space="preserve"><tspan
         y="87.260384"
         x="33.123795"
         style="font-size:5.29167px;line-height:1.25;fill:#0000ff;stroke-width:0.264583px;stroke-linecap:butt;stroke-linejoin:round"
         id="tspan808488"
         sodipodi:role="line">in-phase modulation</tspan></text>
    <text
       id="text808486-4"
       y="137.53122"
       x="32.169331"
       style="font-style:normal;font-variant:normal;font-weight:normal;font-stretch:normal;font-size:3.175px;line-height:0%;font-family:Arial;-inkscape-font-specification:'Arial, Normal';text-align:start;letter-spacing:0px;word-spacing:0px;writing-mode:lr-tb;text-anchor:start;display:inline;fill:#aa0000;fill-opacity:1;stroke:none;stroke-width:0.264583px;stroke-linecap:butt;stroke-linejoin:miter;stroke-opacity:1"
       xml:space="preserve"><tspan
         y="137.53122"
         x="32.169331"
         style="font-size:5.29167px;line-height:1.25;fill:#aa0000;stroke-width:0.264583px;stroke-linecap:butt;stroke-linejoin:round"
         id="tspan808488-9"
         sodipodi:role="line">quadrature modulation</tspan></text>
    <path
       style="display:inline;fill:none;fill-rule:evenodd;stroke:#000000;stroke-width:0.594505;stroke-linecap:butt;stroke-linejoin:miter;stroke-miterlimit:4;stroke-dasharray:none;stroke-opacity:1;marker-end:url(#marker23538)"
       d="M -33.971308,104.10393 V 94.294581"
       id="path148650"
       inkscape:connector-curvature="0" />
    <path
       d="m -16.140474,103.59641 h -34.273042 v 14.84192 h 34.273042 z"
       style="display:inline;fill:#fff200;fill-opacity:1;fill-rule:evenodd;stroke:#ed1c24;stroke-width:0.544454;stroke-linecap:butt;stroke-linejoin:miter;stroke-miterlimit:22.9256;stroke-dasharray:none;stroke-opacity:1"
       id="path11793-9"
       inkscape:connector-curvature="0" />
    <path
       inkscape:connector-curvature="0"
       id="path11797-9"
       style="display:inline;fill:none;stroke:#ed1c24;stroke-width:0.297614;stroke-linecap:butt;stroke-linejoin:miter;stroke-miterlimit:22.9256;stroke-dasharray:none;stroke-opacity:1"
       d="M -23.989254,116.64498 V 105.40317" />
    <path
       inkscape:connector-curvature="0"
       id="path11801-83"
       style="display:inline;fill:none;stroke:#ed1c24;stroke-width:0.297619;stroke-linecap:butt;stroke-linejoin:miter;stroke-miterlimit:22.9256;stroke-dasharray:none;stroke-opacity:1"
       d="m -21.183988,115.88593 -5.621258,-9.73571" />
    <path
       inkscape:connector-curvature="0"
       id="path11805-51"
       style="display:inline;fill:none;stroke:#ed1c24;stroke-width:0.297619;stroke-linecap:butt;stroke-linejoin:miter;stroke-miterlimit:22.9256;stroke-dasharray:none;stroke-opacity:1"
       d="m -19.114348,113.83067 -9.735783,-5.62127" />
    <path
       inkscape:connector-curvature="0"
       id="path11809-9"
       style="display:inline;fill:none;stroke:#ed1c24;stroke-width:0.297614;stroke-linecap:butt;stroke-linejoin:miter;stroke-miterlimit:22.9256;stroke-dasharray:none;stroke-opacity:1"
       d="M -18.368305,111.02402 H -29.610086" />
    <path
       inkscape:connector-curvature="0"
       id="path11813-2"
       style="display:inline;fill:none;stroke:#ed1c24;stroke-width:0.297619;stroke-linecap:butt;stroke-linejoin:miter;stroke-miterlimit:22.9256;stroke-dasharray:none;stroke-opacity:1"
       d="m -19.126744,108.2075 -9.735783,5.62127" />
    <path
       inkscape:connector-curvature="0"
       id="path11817-5"
       style="display:inline;fill:none;stroke:#ed1c24;stroke-width:0.297619;stroke-linecap:butt;stroke-linejoin:miter;stroke-miterlimit:22.9256;stroke-dasharray:none;stroke-opacity:1"
       d="m -21.171611,106.15214 -5.621186,9.73571" />
    <path
       inkscape:connector-curvature="0"
       id="path11821-5"
       style="display:inline;fill:none;stroke:#ed1c24;stroke-width:0.297632;stroke-linecap:butt;stroke-linejoin:miter;stroke-miterlimit:22.9256;stroke-dasharray:none;stroke-opacity:1"
       d="m -23.060947,114.47899 -1.862426,-6.95011" />
    <path
       inkscape:connector-curvature="0"
       id="path11825-8"
       style="display:inline;fill:none;stroke:#ed1c24;stroke-width:0.297622;stroke-linecap:butt;stroke-linejoin:miter;stroke-miterlimit:22.9256;stroke-dasharray:none;stroke-opacity:1"
       d="m -21.443981,113.55883 -5.087627,-5.08764" />
    <path
       inkscape:connector-curvature="0"
       id="path11829-6"
       style="display:inline;fill:none;stroke:#ed1c24;stroke-width:0.297632;stroke-linecap:butt;stroke-linejoin:miter;stroke-miterlimit:22.9256;stroke-dasharray:none;stroke-opacity:1"
       d="m -20.505276,111.93691 -6.950059,-1.86237" />
    <path
       inkscape:connector-curvature="0"
       id="path11833-6"
       style="display:inline;fill:none;stroke:#ed1c24;stroke-width:0.297632;stroke-linecap:butt;stroke-linejoin:miter;stroke-miterlimit:22.9256;stroke-dasharray:none;stroke-opacity:1"
       d="m -20.517158,110.0727 -6.950059,1.86237" />
    <path
       inkscape:connector-curvature="0"
       id="path11837-7"
       style="display:inline;fill:none;stroke:#ed1c24;stroke-width:0.297675;stroke-linecap:butt;stroke-linejoin:miter;stroke-miterlimit:22.9256;stroke-dasharray:none;stroke-opacity:1"
       d="m -21.443983,108.47126 -5.087628,5.08764" />
    <path
       inkscape:connector-curvature="0"
       id="path11841-5"
       style="display:inline;fill:none;stroke:#ed1c24;stroke-width:0.297632;stroke-linecap:butt;stroke-linejoin:miter;stroke-miterlimit:22.9256;stroke-dasharray:none;stroke-opacity:1"
       d="m -23.049057,107.53074 -1.862465,6.95007" />
    <text
       style="font-size:3.175px;line-height:0%;display:inline;stroke-width:0.264583;stroke-linecap:square;stroke-linejoin:round"
       y="110.38457"
       x="-47.696106"
       id="text11843-6"><tspan
         style="font-style:normal;font-variant:normal;font-weight:normal;font-stretch:normal;font-size:7.75565px;line-height:125%;font-family:Arial;-inkscape-font-specification:Arial;text-align:start;writing-mode:lr-tb;text-anchor:start;fill:#231f20;fill-opacity:1;fill-rule:nonzero;stroke:none;stroke-width:0.264583;stroke-linecap:butt;stroke-linejoin:round"
         x="-47.696106"
         sodipodi:role="line"
         id="tspan11845-79"
         y="110.38457">Laser</tspan></text>
    <path
       d="M -29.609236,111.01749 H -48.24592"
       style="display:inline;fill:none;stroke:#ed1c24;stroke-width:0.297775;stroke-linecap:butt;stroke-linejoin:miter;stroke-miterlimit:22.9256;stroke-dasharray:none;stroke-opacity:1"
       id="path11851-5"
       inkscape:connector-curvature="0" />
    <text
       xml:space="preserve"
       style="font-style:normal;font-variant:normal;font-weight:normal;font-stretch:normal;font-size:3.175px;line-height:0%;font-family:Arial;-inkscape-font-specification:'Arial, Normal';text-align:start;letter-spacing:0px;word-spacing:0px;writing-mode:lr-tb;text-anchor:start;display:inline;fill:#000000;fill-opacity:1;stroke:none;stroke-width:0.264583px;stroke-linecap:butt;stroke-linejoin:miter;stroke-opacity:1"
       x="-37.015968"
       y="91.233437"
       id="text147347-6"><tspan
         sodipodi:role="line"
         id="tspan147349-3"
         style="font-size:5.20192px;line-height:1.25;stroke-width:0.264583px;stroke-linecap:butt;stroke-linejoin:round"
         x="-37.015968"
         y="91.233437">I<tspan
   style="font-size:3.38124px;baseline-shift:sub;stroke-width:0.264583px;stroke-linecap:butt;stroke-linejoin:round"
   id="tspan149016">bias</tspan></tspan></text>
    <text
       id="text73722-6-7-3-0-4-6-5-1-6-6"
       y="102.52993"
       x="-9.3413706"
       style="font-style:normal;font-weight:normal;font-size:3.175px;line-height:0%;font-family:sans-serif;letter-spacing:0px;word-spacing:0px;display:inline;fill:#000000;fill-opacity:1;stroke:none;stroke-width:0.264583;stroke-linecap:butt;stroke-linejoin:round"
       xml:space="preserve"><tspan
         y="102.52993"
         x="-9.3413706"
         id="tspan73724-2-8-4-3-1-2-2-8-5-6"
         sodipodi:role="line"
         style="font-size:2.6407px;line-height:1.25;font-family:sans-serif;stroke-width:0.264583;stroke-linecap:butt;stroke-linejoin:round">t</tspan></text>
    <g
       transform="matrix(0.29725315,0,0,0.29725315,-130.29627,2.3413541)"
       style="display:inline;stroke-linecap:butt;stroke-linejoin:round"
       id="g149260">
      <path
         inkscape:connector-curvature="0"
         id="path148963"
         d="m 344,304 v 24 h 64"
         style="fill:none;fill-rule:evenodd;stroke:#000000;stroke-width:1px;stroke-linecap:butt;stroke-linejoin:miter;stroke-opacity:1;marker-start:url(#marker141916);marker-end:url(#marker139008)" />
      <path
         inkscape:connector-curvature="0"
         id="path149018"
         d="m 344,312 h 60"
         style="fill:none;fill-rule:evenodd;stroke:#0000ff;stroke-width:1px;stroke-linecap:butt;stroke-linejoin:miter;stroke-opacity:1" />
    </g>
  </g>
</svg>
